Stochastic migration collision risk model — mig_stoch_crm • stochLAB
…
#> 
#> ℹ Data validation
#> ✔ Data validation [16ms]
#> 
#> ℹ Sampling data
#> ✔ Sampling data [183ms]
#> 
#> ℹ Running simulation...
#> ✔ Running simulation... [1.2s]
#> 
#> ℹ Creating outputs
#> ✔ Creating outputs [14ms]
#> 
#> $collisions
#> # A tibble: 1,000 × 3
#>    PrBMigration PoBMigration OMigration
#>           <dbl>        <dbl>      <dbl>
#>  1        0.196        0.200      0.200
#>  2        0.202        0.207      0.207
#>  3        0.225        0.230      0.231
#>  4        0.190        0.193      0.194
#>  5        0.207        0.211      0.212
#>  6        0.272        0.277      0.278
#>  7        0.225        0.229      0.230
#>  8        0.175        0.178      0.179
#>  9        0.246        0.251      0.252
#> 10        0.381        0.388      0.390
#> # ℹ 990 more rows
#> 
#> $flux_rates
#> # A tibble: 1,000 × 3
#>    PrBMigration PoBMigration OMigration
#>           <dbl>        <dbl>      <dbl>
#>  1        4015.        4015.      4015.
#>  2        3959.        3959.      3959.
#>  3        4240.        4240.      4240.
#>  4        3946.        3946.      3946.
#>  5        4080.        4080.      4080.
#>  6        4028.        4028.      4028.
#>  7        4269.        4269.      4269.
#>  8        3899.        3899.      3899.
#>  9        3915.        3915.      3915.
#> 10        4145.        4145.      4145.
#> # ℹ 990 more rows
…
